C:\Users\I303450\Documents\Workspace\BIYP_V2\service-business\src\main\java\com\sap\service\cloud\factory\CloudFactoryService.java
C:\Users\I303450\Documents\Workspace\BIYP_V2\service-business\src\main\java\com\sap\service\cloud\factory\CloudConfiguration.java
C:\Users\I303450\Documents\Workspace\BIYP_V2\service-business\src\main\java\com\sap\service\cloud\factory\CloudUtil.java
C:\Users\I303450\Documents\Workspace\BIYP_V2\service-business\src\main\java\com\sap\service\cloud\rest\ServiceImpl.java
